{
  "host": [
    {
      "name": "26K",
      "role": "主催",
      "icon": "26k.png",
      "link": [
        {
          "site": "twitter",
          "href": "https://twitter.com/26K_"
        },
        {
          "site": "niconico",
          "href": "https://www.nicovideo.jp/user/23542987"
        }
      ]
    },
    {
      "name": "ウボァー",
      "role": "副主催",
      "icon": "uboar.png",
      "link": [
        {
          "site": "twitter",
          "href": "https://twitter.com/_uboar_"
        },
        {
          "site": "niconico",
          "href": "https://www.nicovideo.jp/user/21791951"
        }
      ]
    },
    {
      "name": "henohenocappa",
      "role": "運営",
      "icon": "henohenocappa.png",
      "link": [
        {
          "site": "twitter",
          "href": "https://twitter.com/henohenocappa"
        },
        {
          "site": "niconico",
          "href": "https://www.nicovideo.jp/user/16691407"
        }
      ]
    },
    {
      "name": "弾道",
      "role": "運営",
      "icon": "dandou.png",
      "link": [
        {
          "site": "twitter",
          "href": "https://twitter.com/Saya_Dandou"
        },
        {
          "site": "niconico",
          "href": "https://www.nicovideo.jp/user/58211550"
        }
      ]
    }
  ],
  "panel": [
    {
      "name": "タイヤヤ",
      "role": "審査員長",
      "icon": "taiyaya20000.jpg",
      "link": [
        {
          "site": "twitter",
          "href": "https://twitter.com/taiyaya20000"
        },
        {
          "site": "niconico",
          "href": "https://www.nicovideo.jp/user/8994323"
        }
      ]
    },
    {
      "name": "大内乙打",
      "role": "審査員",
      "icon": "oouc.png",
      "link": [
        {
          "site": "twitter",
          "href": "https://twitter.com/OZd_oouc2"
        },
        {
          "site": "niconico",
          "href": "https://www.nicovideo.jp/user/6641990"
        }
      ]
    },
    {
      "name": "キットカットおいしい",
      "role": "審査員",
      "icon": "kitkat.png",
      "link": [
        {
          "site": "twitter",
          "href": "https://twitter.com/kitkat_0141"
        },
        {
          "site": "niconico",
          "href": "https://www.nicovideo.jp/user/25346888"
        }
      ]
    },
    {
      "name": "きっかん",
      "role": "審査員",
      "icon": "kitkan.png",
      "link": [
        {
          "site": "twitter",
          "href": "https://twitter.com/ktzkn_"
        },
        {
          "site": "niconico",
          "href": "https://www.nicovideo.jp/user/12224942"
        }
      ]
    },
    {
      "name": "にしたけ",
      "role": "審査員",
      "icon": "nishitake.png",
      "link": [
        {
          "site": "twitter",
          "href": "https://twitter.com/nishitakevast"
        },
        {
          "site": "niconico",
          "href": "https://www.nicovideo.jp/user/5640079"
        }
      ]
    }
  ],
  "staff": [
    {
      "name": "#ぷる",
      "role": "デザイン総合",
      "icon": "ple.png",
      "link": [
        {
          "site": "twitter",
          "href": "https://twitter.com/ple_10024132"
        },
        {
          "site": "niconico",
          "href": "https://www.nicovideo.jp/user/10024132"
        }
      ]
    },
    {
      "name": "餡砂糖",
      "role": "ロゴモーション",
      "icon": "anzato.jpg",
      "link": [
        {
          "site": "twitter",
          "href": "https://twitter.com/Anzato10"
        },
        {
          "site": "niconico",
          "href": "https://www.nicovideo.jp/user/56560368"
        }
      ]
    },
    {
      "name": "ポテたん",
      "role": "PV制作",
      "icon": "potetan.jpg",
      "link": [
        {
          "site": "twitter",
          "href": "https://twitter.com/potetan_2525"
        },
        {
          "site": "niconico",
          "href": "https://www.nicovideo.jp/user/3724024"
        }
      ]
    },
    {
      "name": "Thunders",
      "role": "OP制作",
      "icon": "thunders.png",
      "link": [
        {
          "site": "twitter",
          "href": "https://twitter.com/thunders221"
        },
        {
          "site": "niconico",
          "href": "https://www.nicovideo.jp/user/28151909"
        }
      ]
    },
    {
      "name": "コサンジ",
      "role": "OP制作",
      "icon": "kosanji.jpg",
      "link": [
        {
          "site": "twitter",
          "href": "https://twitter.com/5_3_4_"
        },
        {
          "site": "niconico",
          "href": "https://www.nicovideo.jp/user/27576055"
        }
      ]
    },
    {
      "name": "しぐ～",
      "role": "ED制作",
      "icon": "sigu.jpg",
      "link": [
        {
          "site": "twitter",
          "href": "https://twitter.com/siParaiba"
        },
        {
          "site": "niconico",
          "href": "https://www.nicovideo.jp/user/4731301"
        }
      ]
    }
  ]
}